{
    "Boundary": {
            "file": "plots.shp",
            "folder2_field": "farm",
            "folder3_field": "field",
            "crs": 5514,
            "attributes": {
                "Id": 6
            }
    },
    "Swaths": [
        {
            "file": "ab_lines.shp",
            "crs": 4326,
            "attributes": {
                "Id": 0
            }
        }
    ],
    "LineFeature": [
        {
            "file": "lines.shp",
            "attributes": {
                "Id": 151
            }
        }
    ],
    "AreaFeature": [
        {
            "file": "obstacles.shp",
            "attributes": {
                "Id": 1
            }
        }
    ]
}